// Jest Snapshot v1, https://goo.gl/fbAQLP

exports[`CardProduct component matches the snapshot 1`] = `
<div
  className="cardProduct"
>
  <div
    className="cardProduct-img"
  >
    <img
      src="http://example.com/image.png"
    />
  </div>
  <div
    className="cardProduct-name"
  >
    Product name
  </div>
  <div
    className="cardProduct-price"
  >
    $9.99
     
  </div>
  <div
    className="cardProduct-itemNumber"
  >
    12345
  </div>
  <div
    className="cardProduct-color"
  >
    red
  </div>
  <div
    className="cardProduct-icons"
  >
    <button
      onClick={[Function]}
    >
      <img
        alt=""
        src="https://upload.wikimedia.org/wikipedia/commons/thumb/f/f1/Heart_coraz%C3%B3n.svg/2048px-Heart_coraz%C3%B3n.svg.png"
      />
    </button>
  </div>
  <button
    onClick={[Function]}
    style={
      Object {
        "backgroundColor": undefined,
      }
    }
  >
    Add to cart
  </button>
  <button
    onClick={[Function]}
    style={
      Object {
        "backgroundColor": undefined,
      }
    }
  >
    Remove
  </button>
</div>
`;
